Denominator neglect data tests for learning effects
…
Denominator neglect data tests for learning effects

Sándor Máté Csaba

2/3/2022

Learning effect rtests on Szaszi et al

Varaible map

library(tidyverse)
readxl::read_excel("szaszi_sup/Description of the variables.xlsx")

## # A tibble: 26 x 2
##    ID          `ID of the participant`                                          
##    <chr>       <chr>                                                            
##  1 mt_id       Trial ID                                                         
##  2 RT          Reaction Time                                                    
##  3 gender      Gender of the participant                                        
##  4 age         Age of the participant                                           
##  5 Congruency  Congruency of the trial                                          
##  6 Congruency… Congruency of the trial                                          
##  7 Correct     Correctness of the answer                                        
##  8 Missed      Did the participant provide an answer within the 3 seconds time-…
##  9 CoM         Was it a trial with CoM?                                         
## 10 CoM_pattern The order the AOIs the participants moved the mouse into (R-righ…
## # … with 16 more rows
…
Experiment 2 raw data, testing if the mt package keeps the experiment order (spoiler alert, it does)

raw_data_exp2 <- read_delim("szaszi_sup/Raw_data exp2.csv", 
    ";", escape_double = FALSE, trim_ws = TRUE)

raw_data_exp2

## # A tibble: 7,722 x 29
##    rowID Neptun Left  Right xpos  ypos  timestamps Button_response    RT gender
##    <dbl>  <dbl> <chr> <chr> <chr> <chr> <chr>      <chr>           <dbl> <chr> 
##  1     1      1 s1    2     [0, … [353… [173861.0… s1               2594 F�rfi 
##  2     2      1 s1    1     [0, … [353… [196933.0… s1               2457 F�rfi 
##  3     3      1 23    s2    [0, … [353… [115472.0… 23               1646 F�rfi 
##  4     4      1 s2    28    [0, … [353… [187706.0… 28               2036 F�rfi 
##  5     5      1 36    s3    [0, … [353… [185122.0… 36               1820 F�rfi 
##  6     6      1 s1    15    [0, … [353… [193289.0… 15               2782 F�rfi 
##  7     7      1 14    s1    [0, … [353… [124033.0… 14               1677 F�rfi 
##  8     8      1 s2    29    [0, … [353… [200789.0… 29               2442 F�rfi 
##  9     9      1 s3    32    [0, … [353… [190678.0… 32               1849 F�rfi 
## 10    10      1 s3    35    [0, … [353… [208461.0… 35               2513 F�rfi 
## # … with 7,712 more rows, and 19 more variables: age <dbl>, Trial <dbl>,
## #   Small_L <dbl>, Small_R <dbl>, Big <dbl>, Small <dbl>, Congruency <dbl>,
## #   Button <dbl>, Correct_button <dbl>, Correct <dbl>, Missed <dbl>,
## #   Type_name <chr>, numeracy <dbl>, numeracy_setting <chr>, IQ <dbl>,
## #   IQ_z <dbl>, numeracy_z <dbl>, composit <dbl>, ID <dbl>
exp2_data %>% 
  select(ID, RT) %>%
  group_by(ID) %>%
  slice_head(n = 3) %>%
  mutate(row_number = row_number()) %>%
  ungroup() %>%
  left_join(raw_data_exp2 %>% 
  select(ID, RT) %>%
  group_by(ID) %>%
  slice_head(n = 3) %>%
  mutate(row_number = row_number()) %>%
  ungroup(), by = c("ID","row_number")) %>%
  mutate(diff = RT.x-RT.y)

## # A tibble: 387 x 5
##       ID  RT.x row_number  RT.y  diff
##    <dbl> <dbl>      <int> <dbl> <dbl>
##  1     1  2594          1  2594     0
##  2     1  2457          2  2457     0
##  3     1  1646          3  1646     0
##  4     2  1436          1  1436     0
##  5     2  1982          2  1982     0
##  6     2  1352          3  1352     0
##  7     3  2218          1  2218     0
##  8     3  1140          2  1140     0
##  9     3  1446          3  1446     0
## 10     4  1783          1  3000 -1217
## # … with 377 more rows
…
